PeopleImages
ID      downloads      reg_date      is_photographer is_videographer is_illustrator
 629407   1600000      2005-10-01      1       1      1
Age in weeks: 567 
kpi-2: 0.015597
 ---------------------------------------------------------------------

lisegagne
ID      downloads      reg_date      is_photographer is_videographer is_illustrator
 162596   1200000      2003-04-01      1       0      0
Age in weeks: 698 
kpi-2: 0.014999
 ---------------------------------------------------------------------

hidesy
ID      downloads      reg_date      is_photographer is_videographer is_illustrator
 262458   730000      2003-11-01      1       0      1
Age in weeks: 667 
kpi-2: 0.008392
 ---------------------------------------------------------------------

alexsl
ID      downloads      reg_date      is_photographer is_videographer is_illustrator
 614972   620000      2005-10-01      1       0      1
Age in weeks: 567 
kpi-2: 0.007314
 ---------------------------------------------------------------------

jhorrocks
ID      downloads      reg_date      is_photographer is_videographer is_illustrator
 206914   560000      2003-07-01      1       1      1
Age in weeks: 685 
kpi-2: 0.006810
 ---------------------------------------------------------------------

nikada
ID      downloads      reg_date      is_photographer is_videographer is_illustrator
 475444   460000      2005-05-01      1       0      0
Age in weeks: 589 
kpi-2: 0.005126
 ---------------------------------------------------------------------

urbancow
ID      downloads      reg_date      is_photographer is_videographer is_illustrator
 300612   410000      2004-02-01      1       0      0
Age in weeks: 654 
kpi-2: 0.004852
 ---------------------------------------------------------------------

spxChrome
ID      downloads      reg_date      is_photographer is_videographer is_illustrator
 276296   370000      2003-12-01      1       0      0
Age in weeks: 663 
kpi-2: 0.004642
 ---------------------------------------------------------------------

blackred
ID      downloads      reg_date      is_photographer is_videographer is_illustrator
 136247   380000      2003-02-01      1       1      1
Age in weeks: 706 
kpi-2: 0.004584
 ---------------------------------------------------------------------

sodafish
ID      downloads      reg_date      is_photographer is_videographer is_illustrator
 704336   350000      2005-12-01      1       0      1
Age in weeks: 558 
kpi-2: 0.004482
 ---------------------------------------------------------------------

nico_blue
ID      downloads      reg_date      is_photographer is_videographer is_illustrator
 374198   350000      2004-10-01      1       0      1
Age in weeks: 619 
kpi-2: 0.004357
 ---------------------------------------------------------------------

webphotographeer
ID      downloads      reg_date      is_photographer is_videographer is_illustrator
 555372   370000      2005-08-01      1       0      0
Age in weeks: 576 
kpi-2: 0.004220
 ---------------------------------------------------------------------

enjoynz
ID      downloads      reg_date      is_photographer is_videographer is_illustrator
 706081   340000      2005-12-01      1       0      1
Age in weeks: 558 
kpi-2: 0.004216
 ---------------------------------------------------------------------

skodonnell
ID      downloads      reg_date      is_photographer is_videographer is_illustrator
 652260   340000      2005-11-01      1       1      0
Age in weeks: 563 
kpi-2: 0.004152
 ---------------------------------------------------------------------

andresrimaging
ID      downloads      reg_date      is_photographer is_videographer is_illustrator
 391712   330000      2004-12-01      1       1      0
Age in weeks: 610 
kpi-2: 0.003819
 ---------------------------------------------------------------------

track5
ID      downloads      reg_date      is_photographer is_videographer is_illustrator
 12239   310000      2002-02-01      1       0      0
Age in weeks: 758 
kpi-2: 0.003817
 ---------------------------------------------------------------------

caracterdesign
ID      downloads      reg_date      is_photographer is_videographer is_illustrator
 307230   310000      2004-03-01      1       0      0
Age in weeks: 650 
kpi-2: 0.003675
 ---------------------------------------------------------------------

jgroup
ID      downloads      reg_date      is_photographer is_videographer is_illustrator
 519171   290000      2005-07-01      1       1      0
Age in weeks: 580 
kpi-2: 0.003656
 ---------------------------------------------------------------------

peepo
ID      downloads      reg_date      is_photographer is_videographer is_illustrator
 743622   310000      2006-01-01      1       1      0
Age in weeks: 554 
kpi-2: 0.003585
 ---------------------------------------------------------------------

ranplett
ID      downloads      reg_date      is_photographer is_videographer is_illustrator
 70438   280000      2002-06-01      1       0      1
Age in weeks: 741 
kpi-2: 0.003531
 ---------------------------------------------------------------------

pixdeluxe
ID      downloads      reg_date      is_photographer is_videographer is_illustrator
 2881663   310000      2008-01-01      1       0      0
Age in weeks: 450 
kpi-2: 0.003519
 ---------------------------------------------------------------------

mevans
ID      downloads      reg_date      is_photographer is_videographer is_illustrator
 71254   270000      2002-06-01      1       1      0
Age in weeks: 741 
kpi-2: 0.003398
 ---------------------------------------------------------------------

AndrewJohnson
ID      downloads      reg_date      is_photographer is_videographer is_illustrator
 784009   250000      2006-02-01      1       1      0
Age in weeks: 549 
kpi-2: 0.003034
 ---------------------------------------------------------------------

TommL
ID      downloads      reg_date      is_photographer is_videographer is_illustrator
 814005   250000      2006-03-01      1       0      0
Age in weeks: 545 
kpi-2: 0.003028
 ---------------------------------------------------------------------

Cimmerian
ID      downloads      reg_date      is_photographer is_videographer is_illustrator
 193954   240000      2003-06-01      1       0      0
Age in weeks: 689 
kpi-2: 0.002948
 ---------------------------------------------------------------------

filo
ID      downloads      reg_date      is_photographer is_videographer is_illustrator
 564978   250000      2005-08-01      1       1      1
Age in weeks: 576 
kpi-2: 0.002947
 ---------------------------------------------------------------------

mammamaart
ID      downloads      reg_date      is_photographer is_videographer is_illustrator
 127925   240000      2003-01-01      1       0      1
Age in weeks: 710 
kpi-2: 0.002936
 ---------------------------------------------------------------------

diane39
ID      downloads      reg_date      is_photographer is_videographer is_illustrator
 107002   240000      2002-11-01      1       0      0
Age in weeks: 719 
kpi-2: 0.002931
 ---------------------------------------------------------------------

aleksandarvelasevic
ID      downloads      reg_date      is_photographer is_videographer is_illustrator
 1088144   230000      2006-07-01      0       0      1
Age in weeks: 528 
kpi-2: 0.002911
 ---------------------------------------------------------------------

aldomurillo
ID      downloads      reg_date      is_photographer is_videographer is_illustrator
 640119   290000      2005-10-01      1       0      0
Age in weeks: 567 
kpi-2: 0.002789
 ---------------------------------------------------------------------

sdominick
ID      downloads      reg_date      is_photographer is_videographer is_illustrator
 113492   250000      2002-12-01      1       1      0
Age in weeks: 715 
kpi-2: 0.002747
 ---------------------------------------------------------------------

appleuzr
ID      downloads      reg_date      is_photographer is_videographer is_illustrator
 439408   220000      2005-03-01      0       0      1
Age in weeks: 598 
kpi-2: 0.002731
 ---------------------------------------------------------------------

YinYang
ID      downloads      reg_date      is_photographer is_videographer is_illustrator
 933189   270000      2006-05-01      1       0      0
Age in weeks: 537 
kpi-2: 0.002727
 ---------------------------------------------------------------------

dem10
ID      downloads      reg_date      is_photographer is_videographer is_illustrator
 357349   240000      2004-08-01      1       1      1
Age in weeks: 628 
kpi-2: 0.002717
 ---------------------------------------------------------------------

digitalskillet
ID      downloads      reg_date      is_photographer is_videographer is_illustrator
 1155805   240000      2006-09-01      1       1      0
Age in weeks: 519 
kpi-2: 0.002702
 ---------------------------------------------------------------------

enot-poloskun
ID      downloads      reg_date      is_photographer is_videographer is_illustrator
 546548   210000      2005-08-01      1       0      1
Age in weeks: 576 
kpi-2: 0.002678
 ---------------------------------------------------------------------

kirstypargeter
ID      downloads      reg_date      is_photographer is_videographer is_illustrator
 369218   250000      2004-10-01      1       0      1
Age in weeks: 619 
kpi-2: 0.002665
 ---------------------------------------------------------------------

A-Digit
ID      downloads      reg_date      is_photographer is_videographer is_illustrator
 553621   250000      2005-08-01      0       0      1
Age in weeks: 576 
kpi-2: 0.002647
 ---------------------------------------------------------------------

pagadesign
ID      downloads      reg_date      is_photographer is_videographer is_illustrator
 1790221   230000      2007-03-01      1       1      1
Age in weeks: 493 
kpi-2: 0.002600
 ---------------------------------------------------------------------

narvikk
ID      downloads      reg_date      is_photographer is_videographer is_illustrator
 583338   210000      2005-09-01      1       1      1
Age in weeks: 571 
kpi-2: 0.002522
 ---------------------------------------------------------------------

LUGO
ID      downloads      reg_date      is_photographer is_videographer is_illustrator
 4004   210000      2002-02-01      1       0      1
Age in weeks: 758 
kpi-2: 0.002493
 ---------------------------------------------------------------------

Mlenny
ID      downloads      reg_date      is_photographer is_videographer is_illustrator
 432646   230000      2005-03-01      1       1      1
Age in weeks: 598 
kpi-2: 0.002401
 ---------------------------------------------------------------------

kcline
ID      downloads      reg_date      is_photographer is_videographer is_illustrator
 247787   190000      2003-10-01      1       0      0
Age in weeks: 671 
kpi-2: 0.002342
 ---------------------------------------------------------------------

viafilms
ID      downloads      reg_date      is_photographer is_videographer is_illustrator
 1367749   200000      2006-11-01      1       1      0
Age in weeks: 510 
kpi-2: 0.002314
 ---------------------------------------------------------------------

browndogstudios
ID      downloads      reg_date      is_photographer is_videographer is_illustrator
 897416   180000      2006-04-01      0       0      1
Age in weeks: 541 
kpi-2: 0.002263
 ---------------------------------------------------------------------

sx70
ID      downloads      reg_date      is_photographer is_videographer is_illustrator
 314995   190000      2004-04-01      1       1      1
Age in weeks: 645 
kpi-2: 0.002225
 ---------------------------------------------------------------------

stevecoleimages
ID      downloads      reg_date      is_photographer is_videographer is_illustrator
 778549   200000      2006-02-01      1       1      0
Age in weeks: 549 
kpi-2: 0.002215
 ---------------------------------------------------------------------

pixhook
ID      downloads      reg_date      is_photographer is_videographer is_illustrator
 975835   180000      2006-05-01      1       0      0
Age in weeks: 537 
kpi-2: 0.002203
 ---------------------------------------------------------------------

Palto
ID      downloads      reg_date      is_photographer is_videographer is_illustrator
 998187   180000      2006-06-01      1       0      1
Age in weeks: 532 
kpi-2: 0.002145
 ---------------------------------------------------------------------

Maica
ID      downloads      reg_date      is_photographer is_videographer is_illustrator
 429006   200000      2005-03-01      1       0      0
Age in weeks: 598 
kpi-2: 0.002100
 ---------------------------------------------------------------------

