vectorchef
ID      illustration_num     reg_date     is_photographer is_videographer is_illustrator
 12821210   73578    2015-02-01      0       0      1
Age in weeks: 80 
Illustration per week: 919.72500
 ---------------------------------------------------------------------

hchjjl
ID      illustration_num     reg_date     is_photographer is_videographer is_illustrator
 12805918   73068    2015-02-01      0       0      1
Age in weeks: 80 
Illustration per week: 913.35000
 ---------------------------------------------------------------------

eatcute
ID      illustration_num     reg_date     is_photographer is_videographer is_illustrator
 9387713   146144    2012-07-01      0       0      1
Age in weeks: 215 
Illustration per week: 679.73953
 ---------------------------------------------------------------------

Tanya-stock
ID      illustration_num     reg_date     is_photographer is_videographer is_illustrator
 13489723   27485    2015-07-01      0       0      1
Age in weeks: 58 
Illustration per week: 473.87931
 ---------------------------------------------------------------------

palau83
ID      illustration_num     reg_date     is_photographer is_videographer is_illustrator
 9749701   71976    2012-11-01      0       0      1
Age in weeks: 197 
Illustration per week: 365.36041
 ---------------------------------------------------------------------

Blankstock
ID      illustration_num     reg_date     is_photographer is_videographer is_illustrator
 9852737   53666    2012-12-01      1       0      1
Age in weeks: 193 
Illustration per week: 278.06218
 ---------------------------------------------------------------------

Rizvan3d
ID      illustration_num     reg_date     is_photographer is_videographer is_illustrator
 8956541   55645    2012-04-01      0       0      1
Age in weeks: 228 
Illustration per week: 244.05702
 ---------------------------------------------------------------------

studiogstock
ID      illustration_num     reg_date     is_photographer is_videographer is_illustrator
 11384838   25667    2014-02-01      0       0      1
Age in weeks: 132 
Illustration per week: 194.44697
 ---------------------------------------------------------------------

yitewang
ID      illustration_num     reg_date     is_photographer is_videographer is_illustrator
 13185337   12797    2015-05-01      0       0      1
Age in weeks: 67 
Illustration per week: 191.00000
 ---------------------------------------------------------------------

CSA-Images
ID      illustration_num     reg_date     is_photographer is_videographer is_illustrator
 13400801   10609    2015-06-01      0       0      1
Age in weeks: 63 
Illustration per week: 168.39683
 ---------------------------------------------------------------------

grmarc
ID      illustration_num     reg_date     is_photographer is_videographer is_illustrator
 11258630   21304    2014-01-01      0       0      1
Age in weeks: 136 
Illustration per week: 156.64706
 ---------------------------------------------------------------------

macrovector
ID      illustration_num     reg_date     is_photographer is_videographer is_illustrator
 10739896   22136    2013-10-01      0       0      1
Age in weeks: 150 
Illustration per week: 147.57333
 ---------------------------------------------------------------------

mamanamsai2
ID      illustration_num     reg_date     is_photographer is_videographer is_illustrator
 11454968   19404    2014-02-01      0       0      1
Age in weeks: 132 
Illustration per week: 147.00000
 ---------------------------------------------------------------------

blueringmedia
ID      illustration_num     reg_date     is_photographer is_videographer is_illustrator
 10528842   22409    2013-08-01      0       0      1
Age in weeks: 158 
Illustration per week: 141.82911
 ---------------------------------------------------------------------

Icon_Craft_Studio
ID      illustration_num     reg_date     is_photographer is_videographer is_illustrator
 12759766   11549    2015-01-01      0       0      1
Age in weeks: 84 
Illustration per week: 137.48810
 ---------------------------------------------------------------------

djvstock
ID      illustration_num     reg_date     is_photographer is_videographer is_illustrator
 11763016   14435    2014-05-01      0       0      1
Age in weeks: 119 
Illustration per week: 121.30252
 ---------------------------------------------------------------------

Blablo101
ID      illustration_num     reg_date     is_photographer is_videographer is_illustrator
 12089114   9947    2014-08-01      0       0      1
Age in weeks: 106 
Illustration per week: 93.83962
 ---------------------------------------------------------------------

kaer_istock
ID      illustration_num     reg_date     is_photographer is_videographer is_illustrator
 13212179   6220    2015-05-01      0       0      1
Age in weeks: 67 
Illustration per week: 92.83582
 ---------------------------------------------------------------------

kchungtw
ID      illustration_num     reg_date     is_photographer is_videographer is_illustrator
 9151488   20001    2012-05-01      1       0      1
Age in weeks: 224 
Illustration per week: 89.29018
 ---------------------------------------------------------------------

RedlineVector
ID      illustration_num     reg_date     is_photographer is_videographer is_illustrator
 13154233   5673    2015-04-01      0       0      1
Age in weeks: 71 
Illustration per week: 79.90141
 ---------------------------------------------------------------------

HelenStocker
ID      illustration_num     reg_date     is_photographer is_videographer is_illustrator
 8800357   17818    2012-02-01      0       0      1
Age in weeks: 236 
Illustration per week: 75.50000
 ---------------------------------------------------------------------

CSA-Printstock
ID      illustration_num     reg_date     is_photographer is_videographer is_illustrator
 10453708   11929    2013-07-01      0       0      1
Age in weeks: 163 
Illustration per week: 73.18405
 ---------------------------------------------------------------------

CSA-Archive
ID      illustration_num     reg_date     is_photographer is_videographer is_illustrator
 10453706   11390    2013-07-01      0       0      1
Age in weeks: 163 
Illustration per week: 69.87730
 ---------------------------------------------------------------------

Merfin
ID      illustration_num     reg_date     is_photographer is_videographer is_illustrator
 9660744   14156    2012-09-01      0       0      1
Age in weeks: 206 
Illustration per week: 68.71845
 ---------------------------------------------------------------------

ShowVectorStudio
ID      illustration_num     reg_date     is_photographer is_videographer is_illustrator
 14926691   672    2016-06-01      0       0      1
Age in weeks: 10 
Illustration per week: 67.20000
 ---------------------------------------------------------------------

Illustratiostock
ID      illustration_num     reg_date     is_photographer is_videographer is_illustrator
 11426194   8545    2014-02-01      0       0      1
Age in weeks: 132 
Illustration per week: 64.73485
 ---------------------------------------------------------------------

Tarchyshnik
ID      illustration_num     reg_date     is_photographer is_videographer is_illustrator
 10851258   9611    2013-10-01      0       0      1
Age in weeks: 150 
Illustration per week: 64.07333
 ---------------------------------------------------------------------

carlacdesign
ID      illustration_num     reg_date     is_photographer is_videographer is_illustrator
 12248846   6219    2014-09-01      0       0      1
Age in weeks: 102 
Illustration per week: 60.97059
 ---------------------------------------------------------------------

Lisess
ID      illustration_num     reg_date     is_photographer is_videographer is_illustrator
 13166601   3883    2015-05-01      0       0      1
Age in weeks: 67 
Illustration per week: 57.95522
 ---------------------------------------------------------------------

Helen_Field
ID      illustration_num     reg_date     is_photographer is_videographer is_illustrator
 10740022   8560    2013-10-01      1       1      1
Age in weeks: 150 
Illustration per week: 57.06667
 ---------------------------------------------------------------------

JuliarStudio
ID      illustration_num     reg_date     is_photographer is_videographer is_illustrator
 13783825   2567    2015-10-01      0       0      1
Age in weeks: 45 
Illustration per week: 57.04444
 ---------------------------------------------------------------------

oscarphotos
ID      illustration_num     reg_date     is_photographer is_videographer is_illustrator
 14827873   547    2016-06-01      0       0      1
Age in weeks: 10 
Illustration per week: 54.70000
 ---------------------------------------------------------------------

mOleks
ID      illustration_num     reg_date     is_photographer is_videographer is_illustrator
 12147906   5582    2014-08-01      0       0      1
Age in weeks: 106 
Illustration per week: 52.66038
 ---------------------------------------------------------------------

Hluboki
ID      illustration_num     reg_date     is_photographer is_videographer is_illustrator
 13352549   3251    2015-06-01      0       0      1
Age in weeks: 63 
Illustration per week: 51.60317
 ---------------------------------------------------------------------

Baluchis
ID      illustration_num     reg_date     is_photographer is_videographer is_illustrator
 10305253   8791    2013-05-01      0       0      1
Age in weeks: 171 
Illustration per week: 51.40936
 ---------------------------------------------------------------------

ViSnezh
ID      illustration_num     reg_date     is_photographer is_videographer is_illustrator
 11605792   6370    2014-03-01      0       0      1
Age in weeks: 128 
Illustration per week: 49.76562
 ---------------------------------------------------------------------

Daria_Andrianova
ID      illustration_num     reg_date     is_photographer is_videographer is_illustrator
 14069621   1770    2015-12-01      0       0      1
Age in weeks: 37 
Illustration per week: 47.83784
 ---------------------------------------------------------------------

Chorniy10
ID      illustration_num     reg_date     is_photographer is_videographer is_illustrator
 10374164   7799    2013-06-01      0       0      1
Age in weeks: 167 
Illustration per week: 46.70060
 ---------------------------------------------------------------------

ArtInspiring
ID      illustration_num     reg_date     is_photographer is_videographer is_illustrator
 14580457   877    2016-04-01      0       0      1
Age in weeks: 19 
Illustration per week: 46.15789
 ---------------------------------------------------------------------

stalkerstudent
ID      illustration_num     reg_date     is_photographer is_videographer is_illustrator
 12332882   4456    2014-10-01      0       0      1
Age in weeks: 97 
Illustration per week: 45.93814
 ---------------------------------------------------------------------

nuiiun
ID      illustration_num     reg_date     is_photographer is_videographer is_illustrator
 11422612   5986    2014-02-01      0       0      1
Age in weeks: 132 
Illustration per week: 45.34848
 ---------------------------------------------------------------------

microvone
ID      illustration_num     reg_date     is_photographer is_videographer is_illustrator
 14554645   845    2016-04-01      0       1      1
Age in weeks: 19 
Illustration per week: 44.47368
 ---------------------------------------------------------------------

bgblue
ID      illustration_num     reg_date     is_photographer is_videographer is_illustrator
 8964531   9938    2012-04-01      0       1      1
Age in weeks: 228 
Illustration per week: 43.58772
 ---------------------------------------------------------------------

Pavel_R
ID      illustration_num     reg_date     is_photographer is_videographer is_illustrator
 10808824   6439    2013-10-01      0       0      1
Age in weeks: 150 
Illustration per week: 42.92667
 ---------------------------------------------------------------------

mara_lingstad
ID      illustration_num     reg_date     is_photographer is_videographer is_illustrator
 11360528   5528    2014-02-01      0       0      1
Age in weeks: 132 
Illustration per week: 41.87879
 ---------------------------------------------------------------------

Little_cuckoo
ID      illustration_num     reg_date     is_photographer is_videographer is_illustrator
 11247730   5587    2014-01-01      0       0      1
Age in weeks: 136 
Illustration per week: 41.08088
 ---------------------------------------------------------------------

Samuil_Levich
ID      illustration_num     reg_date     is_photographer is_videographer is_illustrator
 12679412   3336    2015-01-01      0       0      1
Age in weeks: 84 
Illustration per week: 39.71429
 ---------------------------------------------------------------------

SurfUpVector
ID      illustration_num     reg_date     is_photographer is_videographer is_illustrator
 14035957   1424    2015-12-01      0       0      1
Age in weeks: 37 
Illustration per week: 38.48649
 ---------------------------------------------------------------------

Qilli
ID      illustration_num     reg_date     is_photographer is_videographer is_illustrator
 12999530   2824    2015-03-01      0       0      1
Age in weeks: 76 
Illustration per week: 37.15789
 ---------------------------------------------------------------------

olegganko
ID      illustration_num     reg_date     is_photographer is_videographer is_illustrator
 9026541   8352    2012-04-01      1       0      1
Age in weeks: 228 
Illustration per week: 36.63158
 ---------------------------------------------------------------------

