pixdeluxe
ID      downloads      files     reg_date     is_photographer is_videographer is_illustrator
 2881663   310000    9914    2008-01-01      1       0      0
Age in weeks: 450 
KPI-2: 0.02499
 ---------------------------------------------------------------------

kupicoo
ID      downloads      files     reg_date     is_photographer is_videographer is_illustrator
 5074146   190000    17286    2009-08-01      1       0      0
Age in weeks: 367 
KPI-2: 0.01371
 ---------------------------------------------------------------------

FatCamera
ID      downloads      files     reg_date     is_photographer is_videographer is_illustrator
 3296437   210000    37691    2008-04-01      1       1      0
Age in weeks: 437 
KPI-2: 0.01248
 ---------------------------------------------------------------------

malerapaso
ID      downloads      files     reg_date     is_photographer is_videographer is_illustrator
 3727489   150000    4345    2008-08-01      1       0      0
Age in weeks: 419 
KPI-2: 0.01216
 ---------------------------------------------------------------------

pictafolio
ID      downloads      files     reg_date     is_photographer is_videographer is_illustrator
 3492609   140000    1966    2008-05-01      1       1      0
Age in weeks: 432 
KPI-2: 0.01165
 ---------------------------------------------------------------------

kali9
ID      downloads      files     reg_date     is_photographer is_videographer is_illustrator
 5956760   180000    26611    2010-04-01      1       1      0
Age in weeks: 332 
KPI-2: 0.01152
 ---------------------------------------------------------------------

Squaredpixels
ID      downloads      files     reg_date     is_photographer is_videographer is_illustrator
 5074674   170000    22021    2009-08-01      1       0      0
Age in weeks: 367 
KPI-2: 0.01132
 ---------------------------------------------------------------------

wragg
ID      downloads      files     reg_date     is_photographer is_videographer is_illustrator
 3045684   130000    10835    2008-02-01      1       0      0
Age in weeks: 445 
KPI-2: 0.00952
 ---------------------------------------------------------------------

mediaphotos
ID      downloads      files     reg_date     is_photographer is_videographer is_illustrator
 3629359   170000    37493    2008-07-01      1       0      0
Age in weeks: 424 
KPI-2: 0.00910
 ---------------------------------------------------------------------

Pgiam
ID      downloads      files     reg_date     is_photographer is_videographer is_illustrator
 2918607   110000    6544    2008-01-01      1       0      0
Age in weeks: 450 
KPI-2: 0.00843
 ---------------------------------------------------------------------

Dean Mitchell
ID      downloads      files     reg_date     is_photographer is_videographer is_illustrator
 2974303   100000    9337    2008-02-01      1       0      0
Age in weeks: 445 
KPI-2: 0.00718
 ---------------------------------------------------------------------

bowdenimages
ID      downloads      files     reg_date     is_photographer is_videographer is_illustrator
 3896861   100000    10012    2008-10-01      1       1      0
Age in weeks: 410 
KPI-2: 0.00708
 ---------------------------------------------------------------------

Moncherie
ID      downloads      files     reg_date     is_photographer is_videographer is_illustrator
 3894770   83000    7386    2008-10-01      1       0      0
Age in weeks: 410 
KPI-2: 0.00601
 ---------------------------------------------------------------------

scanrail
ID      downloads      files     reg_date     is_photographer is_videographer is_illustrator
 4454199   72000    2710    2009-03-01      1       1      1
Age in weeks: 389 
KPI-2: 0.00575
 ---------------------------------------------------------------------

porcorex
ID      downloads      files     reg_date     is_photographer is_videographer is_illustrator
 3183263   72000    2990    2008-03-01      1       0      0
Age in weeks: 441 
KPI-2: 0.00571
 ---------------------------------------------------------------------

loops7
ID      downloads      files     reg_date     is_photographer is_videographer is_illustrator
 4801753   71000    6400    2009-06-01      1       0      1
Age in weeks: 376 
KPI-2: 0.00513
 ---------------------------------------------------------------------

IakovKalinin
ID      downloads      files     reg_date     is_photographer is_videographer is_illustrator
 3250705   67000    4215    2008-04-01      1       0      0
Age in weeks: 437 
KPI-2: 0.00510
 ---------------------------------------------------------------------

Logorilla
ID      downloads      files     reg_date     is_photographer is_videographer is_illustrator
 4421898   60000    557    2009-03-01      0       0      1
Age in weeks: 389 
KPI-2: 0.00503
 ---------------------------------------------------------------------

pialhovik
ID      downloads      files     reg_date     is_photographer is_videographer is_illustrator
 3805255   60000    1938    2008-09-01      0       0      1
Age in weeks: 415 
KPI-2: 0.00483
 ---------------------------------------------------------------------

ebstock
ID      downloads      files     reg_date     is_photographer is_videographer is_illustrator
 2947001   49000    500    2008-01-01      1       0      0
Age in weeks: 450 
KPI-2: 0.00410
 ---------------------------------------------------------------------

mrPliskin
ID      downloads      files     reg_date     is_photographer is_videographer is_illustrator
 3297130   52000    2551    2008-04-01      1       1      0
Age in weeks: 437 
KPI-2: 0.00406
 ---------------------------------------------------------------------

pressureUA
ID      downloads      files     reg_date     is_photographer is_videographer is_illustrator
 7374565   47000    1266    2011-02-01      1       0      1
Age in weeks: 289 
KPI-2: 0.00382
 ---------------------------------------------------------------------

lumpynoodles
ID      downloads      files     reg_date     is_photographer is_videographer is_illustrator
 4128138   45000    608    2008-12-01      0       0      1
Age in weeks: 402 
KPI-2: 0.00375
 ---------------------------------------------------------------------

CoffeeAndMilk
ID      downloads      files     reg_date     is_photographer is_videographer is_illustrator
 4299163   54000    6276    2009-01-01      1       0      0
Age in weeks: 397 
KPI-2: 0.00370
 ---------------------------------------------------------------------

aluxum
ID      downloads      files     reg_date     is_photographer is_videographer is_illustrator
 5240311   63000    12136    2009-10-01      1       0      1
Age in weeks: 358 
KPI-2: 0.00362
 ---------------------------------------------------------------------

JamesBrey
ID      downloads      files     reg_date     is_photographer is_videographer is_illustrator
 3177374   52000    5959    2008-03-01      1       1      0
Age in weeks: 441 
KPI-2: 0.00357
 ---------------------------------------------------------------------

svetikd
ID      downloads      files     reg_date     is_photographer is_videographer is_illustrator
 5345353   69000    16262    2009-11-01      1       0      0
Age in weeks: 354 
KPI-2: 0.00354
 ---------------------------------------------------------------------

TheresaTibbetts
ID      downloads      files     reg_date     is_photographer is_videographer is_illustrator
 3654220   44000    1456    2008-07-01      0       0      1
Age in weeks: 424 
KPI-2: 0.00354
 ---------------------------------------------------------------------

CGinspiration
ID      downloads      files     reg_date     is_photographer is_videographer is_illustrator
 5373066   45000    2098    2009-11-01      1       0      0
Age in weeks: 354 
KPI-2: 0.00353
 ---------------------------------------------------------------------

Nastco
ID      downloads      files     reg_date     is_photographer is_videographer is_illustrator
 7576793   43000    1510    2011-04-01      1       0      0
Age in weeks: 280 
KPI-2: 0.00345
 ---------------------------------------------------------------------

alxpin
ID      downloads      files     reg_date     is_photographer is_videographer is_illustrator
 3265992   47000    4837    2008-04-01      1       1      0
Age in weeks: 437 
KPI-2: 0.00331
 ---------------------------------------------------------------------

Sashkinw
ID      downloads      files     reg_date     is_photographer is_videographer is_illustrator
 4479530   40000    791    2009-03-01      1       0      0
Age in weeks: 389 
KPI-2: 0.00329
 ---------------------------------------------------------------------

t_kimura
ID      downloads      files     reg_date     is_photographer is_videographer is_illustrator
 5882518   41000    1435    2010-03-01      1       0      0
Age in weeks: 337 
KPI-2: 0.00329
 ---------------------------------------------------------------------

fatihhoca
ID      downloads      files     reg_date     is_photographer is_videographer is_illustrator
 3907218   51000    7425    2008-10-01      1       0      0
Age in weeks: 410 
KPI-2: 0.00328
 ---------------------------------------------------------------------

iqoncept
ID      downloads      files     reg_date     is_photographer is_videographer is_illustrator
 3754446   39000    550    2008-08-01      1       0      0
Age in weeks: 419 
KPI-2: 0.00324
 ---------------------------------------------------------------------

xxmmxx
ID      downloads      files     reg_date     is_photographer is_videographer is_illustrator
 3103649   50000    7151    2008-02-01      1       1      0
Age in weeks: 445 
KPI-2: 0.00323
 ---------------------------------------------------------------------

pop_jop
ID      downloads      files     reg_date     is_photographer is_videographer is_illustrator
 2836888   42000    2762    2008-01-01      0       0      1
Age in weeks: 450 
KPI-2: 0.00318
 ---------------------------------------------------------------------

Warchi
ID      downloads      files     reg_date     is_photographer is_videographer is_illustrator
 3846963   40000    1779    2008-09-01      1       0      1
Age in weeks: 415 
KPI-2: 0.00315
 ---------------------------------------------------------------------

michaeljung
ID      downloads      files     reg_date     is_photographer is_videographer is_illustrator
 3803066   68000    18618    2008-09-01      1       0      0
Age in weeks: 415 
KPI-2: 0.00312
 ---------------------------------------------------------------------

alashi
ID      downloads      files     reg_date     is_photographer is_videographer is_illustrator
 4287658   40000    2043    2009-01-01      0       0      1
Age in weeks: 397 
KPI-2: 0.00312
 ---------------------------------------------------------------------

AleksandarNakic
ID      downloads      files     reg_date     is_photographer is_videographer is_illustrator
 2942461   59000    13803    2008-01-01      1       1      0
Age in weeks: 450 
KPI-2: 0.00304
 ---------------------------------------------------------------------

artvea
ID      downloads      files     reg_date     is_photographer is_videographer is_illustrator
 4363970   37000    1026    2009-02-01      0       0      1
Age in weeks: 393 
KPI-2: 0.00301
 ---------------------------------------------------------------------

chromatika
ID      downloads      files     reg_date     is_photographer is_videographer is_illustrator
 3183170   38000    1707    2008-03-01      1       1      0
Age in weeks: 441 
KPI-2: 0.00299
 ---------------------------------------------------------------------

photocanal25
ID      downloads      files     reg_date     is_photographer is_videographer is_illustrator
 2920891   34000    837    2008-01-01      0       0      1
Age in weeks: 450 
KPI-2: 0.00278
 ---------------------------------------------------------------------

phototropic
ID      downloads      files     reg_date     is_photographer is_videographer is_illustrator
 4023865   35000    1925    2008-11-01      1       0      0
Age in weeks: 406 
KPI-2: 0.00271
 ---------------------------------------------------------------------

fonikum
ID      downloads      files     reg_date     is_photographer is_videographer is_illustrator
 4170628   32000    364    2008-12-01      0       0      1
Age in weeks: 402 
KPI-2: 0.00267
 ---------------------------------------------------------------------

ShutterWorx
ID      downloads      files     reg_date     is_photographer is_videographer is_illustrator
 4439749   36000    2737    2009-03-01      1       0      0
Age in weeks: 389 
KPI-2: 0.00267
 ---------------------------------------------------------------------

SaulHerrera
ID      downloads      files     reg_date     is_photographer is_videographer is_illustrator
 3270365   33000    958    2008-04-01      0       0      1
Age in weeks: 437 
KPI-2: 0.00267
 ---------------------------------------------------------------------

mkurtbas
ID      downloads      files     reg_date     is_photographer is_videographer is_illustrator
 2934615   35000    2603    2008-01-01      1       1      0
Age in weeks: 450 
KPI-2: 0.00261
 ---------------------------------------------------------------------

deepblue4you
ID      downloads      files     reg_date     is_photographer is_videographer is_illustrator
 3167490   43000    7651    2008-03-01      1       1      0
Age in weeks: 441 
KPI-2: 0.00257
 ---------------------------------------------------------------------

